{
  "personal": {
    "name": "Sergio Ignacio Ormeño Vargas",
    "jobtitle": "Programador, desarrollador de videojuegos",
    "location": {
      "city": "Santiago", 
      "country": "Chile"},
    "picture": "https://avatars0.githubusercontent.com/u/12417292?v=3&u=7bbb7629c7eb2ef12565403add50baff8c55b267&s=400",
    "bio": ""   
  },
  "exp": [
    { "charge": "Practica profesional",
      "place": "Niebla Games",
      "link":  "http://www.nieblagames.com/",
      "start": "24/08/2016", 
      "end": "26/10/2016", 
      "desc": "Desarrollo de la plantilla  de interfaz de usuario en conjunto de animaciones para los diferentes menús del proyecto “Causa Voices of the Dusk“"
    }
  ],
  "edu": [
    { "title": "Ingeniería Informática con mención en gestión de la información",
      "start": "03/2010", 
      "end": "01/2017", 
      "desc": "Universidad de Playa Ancha, Valparaíso"
    },
    { "title": "Enseñanza media",
      "start": "03/2006", 
      "end": "08/2009", 
      "desc": "Liceo San José, Punta Arenas"
    }
  ],
  "details": {
    "birthday": "24/05/1991",
    "adress": "El Aguilucho #2418, Los Pinos, Quilpué",
    "adress2": "Linares #1267, Cerro Navia, Santiago",
    "phone": "+569 84142922",
    "email": "sergioignacio.ov@gmail.com"
  },
  "idiomas": [
    {"name": "Español", "level": "Nativo"}, 
    {"name": "Ingles", "level": "C1"}
  ],
  "proglanguages": [
    {"name": "C#", "level": 90}, 
    {"name": "Python", "level": 75},
    {"name": "Java", "level": 50}
  ],
  "frameworks": [
    {"name": "ASP.Net Core", "level": 75}, 
    {"name": "Django", "level": 70},
    {"name": "ASP.Net MVC 5", "level": 65},      
    {"name": "Bootstrap", "level": 65}
  ],
  "web": [
    {"name": "HTML", "level": 90}, 
    {"name": "CSS", "level": 90}, 
    {"name": "JavaScript", "level": 65}, 
    {"name": "PHP", "level": 50}
  ],
   "db": [
    {"name": "SQLite", "level": 60}, 
    {"name": "MongoDB", "level": 60}, 
    {"name": "MySQL", "level": 60}
  ],

  
  "links": [
    {"link": "http://stackoverflow.com/users/6784315/sergio-orme%C3%B1o", "icon": "fa-stack-overflow"}, 
    {"link": "https://github.com/sierz", "icon": "fa-github"}, 
    {"link": "https://www.facebook.com/sergioignacio.ov", "icon": "fa-facebook-square"}
  ]
}